Enter Required Lenght for the array : 
Enter element 1 of 10 : 
Enter element 2 of 10 : 
Enter element 3 of 10 : 
Enter element 4 of 10 : 
Enter element 5 of 10 : 
Enter element 6 of 10 : 
Enter element 7 of 10 : 
Enter element 8 of 10 : 
Enter element 9 of 10 : 
Enter element 10 of 10 : 

[ 10, 20, 30, 40, 50, 60, 70, 80, 90, 100,  ]


Enter Search Key : 
KEY : 25 IS NOT FOUND.
